…
Checked for irregularities in dataset and it appeared to be free from
errors

``` r
Orders %>% 
  select(City) %>% 
  unique() %>% 
  arrange(desc(City))
```

    ## # A tibble: 24 × 1
    ##    City              
    ##    <chr>             
    ##  1 Udaipur           
    ##  2 Thiruvananthapuram
    ##  3 Surat             
    ##  4 Simla             
    ##  5 Pune              
    ##  6 Patna             
    ##  7 Mumbai            
    ##  8 Lucknow           
    ##  9 Kolkata           
    ## 10 Kohima            
    ## # ℹ 14 more rows
…
``` r
category_saleTarget <- Sales_target %>% 
  select(Category, Target, Month) %>% 
  group_by(Month, Category) %>% 
  summarise(Total_Target = sum(Target))
```

    ## `summarise()` has grouped output by 'Month'. You can override using the
    ## `.groups` argument.

``` r
print(category_saleTarget)
```

    ## # A tibble: 36 × 3
    ## # Groups:   Month [12]
    ##    Month  Category    Total_Target
    ##    <chr>  <chr>              <int>
    ##  1 Apr-18 Clothing           12000
    ##  2 Apr-18 Electronics         9000
    ##  3 Apr-18 Furniture          10400
    ##  4 Aug-18 Clothing           14000
    ##  5 Aug-18 Electronics         9000
    ##  6 Aug-18 Furniture          10900
    ##  7 Dec-18 Clothing           16000
    ##  8 Dec-18 Electronics         9000
    ##  9 Dec-18 Furniture          11400
    ## 10 Feb-19 Clothing           16000
    ## # ℹ 26 more rows
…
4.  **Which city has the highest number of orders?**

``` r
HighestOrder <- OrderDetails %>% 
  select(City, Quantity) %>% 
  group_by(City) %>% 
  summarise(Num_Orders = sum(Quantity)) %>% 
  arrange(desc(Num_Orders))

print(HighestOrder)
```

    ## # A tibble: 24 × 2
    ##    City       Num_Orders
    ##    <chr>           <int>
    ##  1 Indore           1084
    ##  2 Mumbai            727
    ##  3 Pune              329
    ##  4 Delhi             306
    ##  5 Chandigarh        275
    ##  6 Bhopal            247
    ##  7 Ahmedabad         235
    ##  8 Kolkata           216
    ##  9 Patna             206
    ## 10 Bangalore         180
    ## # ℹ 14 more rows
…
``` r
joined_data <- inner_join(OrderDetails, Sales_target, by = "Category")
```

    ## Warning in inner_join(OrderDetails, Sales_target, by = "Category"): Detected an unexpected many-to-many relationship between `x` and `y`.
    ## ℹ Row 1 of `x` matches multiple rows in `y`.
    ## ℹ Row 13 of `y` matches multiple rows in `x`.
    ## ℹ If a many-to-many relationship is expected, set `relationship =
    ##   "many-to-many"` to silence this warning.

``` r
print(joined_data)
```

    ## # A tibble: 18,000 × 15
    ##    `Order ID` `Order Date` CustomerName State  City  Order_Price Profit Quantity
    ##    <chr>      <date>       <chr>        <chr>  <chr>       <int>  <dbl>    <int>
    ##  1 B-25601    2018-04-01   Bharat       Gujar… Ahme…        1275  -1148        7
    ##  2 B-25601    2018-04-01   Bharat       Gujar… Ahme…        1275  -1148        7
    ##  3 B-25601    2018-04-01   Bharat       Gujar… Ahme…        1275  -1148        7
    ##  4 B-25601    2018-04-01   Bharat       Gujar… Ahme…        1275  -1148        7
    ##  5 B-25601    2018-04-01   Bharat       Gujar… Ahme…        1275  -1148        7
    ##  6 B-25601    2018-04-01   Bharat       Gujar… Ahme…        1275  -1148        7
    ##  7 B-25601    2018-04-01   Bharat       Gujar… Ahme…        1275  -1148        7
    ##  8 B-25601    2018-04-01   Bharat       Gujar… Ahme…        1275  -1148        7
    ##  9 B-25601    2018-04-01   Bharat       Gujar… Ahme…        1275  -1148        7
    ## 10 B-25601    2018-04-01   Bharat       Gujar… Ahme…        1275  -1148        7
    ## # ℹ 17,990 more rows
    ## # ℹ 7 more variables: Category <chr>, `Sub-Category` <chr>, Revenue <int>,
    ## #   Month.x <chr>, `Month of Order Date` <date>, Target <int>, Month.y <chr>
…
``` r
Monthly_category_sales <- OrderDetails %>% 
  select(Year, Months, Category, Revenue) %>% 
  group_by(Year, Months, Category) %>% 
  summarise(Sales = sum(Revenue))
```

    ## `summarise()` has grouped output by 'Year', 'Months'. You can override using
    ## the `.groups` argument.

``` r
print(Monthly_category_sales)
```

    ## # A tibble: 36 × 4
    ## # Groups:   Year, Months [12]
    ##    Year  Months Category    Sales
    ##    <chr> <chr>  <chr>       <int>
    ##  1 2018  Apr    Clothing    67649
    ##  2 2018  Apr    Electronics 43637
    ##  3 2018  Apr    Furniture   41541
    ##  4 2018  Aug    Clothing    59474
    ##  5 2018  Aug    Electronics 47050
    ##  6 2018  Aug    Furniture   44990
    ##  7 2018  Dec    Clothing    43306
    ##  8 2018  Dec    Electronics 92979
    ##  9 2018  Dec    Furniture   28554
    ## 10 2018  Jul    Clothing    13060
    ## # ℹ 26 more rows
…
